loss,dice_coef,val_loss,val_dice_coef,lr
0.956302047,0.416701674,1.054608803,0.39545295,0.002
0.875164449,0.469271064,0.864878426,0.409990174,0.002
0.85505569,0.481984526,0.839350815,0.417660725,0.002
0.837978125,0.492862701,0.813898039,0.429364275,0.002
0.827773154,0.500173628,0.834753571,0.414796852,0.002
0.820694149,0.504478097,0.85415453,0.409358695,0.002
0.790121078,0.52138114,0.843909397,0.480283685,0.0004
0.778717399,0.529084027,0.826175208,0.51428285,0.0004
0.774837911,0.531629622,0.799861791,0.53490666,0.0004
0.771811128,0.53331697,0.773465931,0.527603269,0.0004
0.769348919,0.535114467,0.773055494,0.53131628,0.0004
0.767947793,0.536916614,0.791463017,0.512931347,0.0004
0.76672703,0.535763621,0.766787052,0.535688519,0.0004
0.762824059,0.53949517,0.767869055,0.532596231,0.0004
0.758632421,0.541651309,0.778019249,0.530691981,0.0004
0.746063828,0.547340751,0.74198544,0.548347473,8.00E-05
0.742428124,0.550580859,0.737471044,0.547650635,8.00E-05
0.740205288,0.551831067,0.738851011,0.547604859,8.00E-05
0.738371909,0.553335726,0.733977854,0.555183768,1.60E-05
0.736248136,0.554371476,0.733545363,0.555435598,1.60E-05
0.734318614,0.555729747,0.733846605,0.555725336,1.60E-05
0.73342222,0.556435645,0.732943416,0.556265473,1.60E-05
0.734034598,0.556035399,0.733440876,0.556088984,1.60E-05
0.732028484,0.557247758,0.733431697,0.556502879,1.60E-05
0.733983755,0.556936502,0.732848644,0.556577206,1.60E-05
0.734048069,0.556463838,0.733393192,0.556789041,1.60E-05
0.733160436,0.557130754,0.732926071,0.557097912,1.60E-05
0.733632445,0.556916416,0.733416855,0.557122529,1.60E-05
0.733413994,0.556867778,0.732683837,0.557515979,1.60E-05
0.731772959,0.557713509,0.732406557,0.556898534,1.60E-05
